<?xml version="1.0" encoding="UTF-8" standalone="no"?>
<svg
   width="640"
   height="640"
   viewBox="0 0 169.33333 169.33334"
   version="1.1"
   id="svg8"
   inkscape:version="1.1 (1:1.1+202105261517+ce6663b3b7)"
   sodipodi:docname="quicksplain1_white.svg"
   inkscape:export-filename="/home/andri/Pictures/Inkscape mess/Project logos/quicksplain1_white.png"
   inkscape:export-xdpi="96"
   inkscape:export-ydpi="96"
   xmlns:inkscape="http://www.inkscape.org/namespaces/inkscape"
   xmlns:sodipodi="http://sodipodi.sourceforge.net/DTD/sodipodi-0.dtd"
   xmlns="http://www.w3.org/2000/svg"
   xmlns:svg="http://www.w3.org/2000/svg"
   xmlns:rdf="http://www.w3.org/1999/02/22-rdf-syntax-ns#"
   xmlns:cc="http://creativecommons.org/ns#"
   xmlns:dc="http://purl.org/dc/elements/1.1/">
  <defs
     id="defs2" />
  <sodipodi:namedview
     id="base"
     pagecolor="#ffffff"
     bordercolor="#666666"
     borderopacity="1.0"
     inkscape:pageopacity="0.0"
     inkscape:pageshadow="2"
     inkscape:zoom="0.80572957"
     inkscape:cx="385.98559"
     inkscape:cy="338.82336"
     inkscape:document-units="px"
     inkscape:current-layer="layer1"
     inkscape:document-rotation="0"
     showgrid="false"
     units="px"
     inkscape:pagecheckerboard="0"
     inkscape:lockguides="true"
     showguides="false"
     inkscape:window-width="1920"
     inkscape:window-height="1052"
     inkscape:window-x="0"
     inkscape:window-y="28"
     inkscape:window-maximized="1" />
  <metadata
     id="metadata5">
    <rdf:RDF>
      <cc:Work
         rdf:about="">
        <dc:format>image/svg+xml</dc:format>
        <dc:type
           rdf:resource="http://purl.org/dc/dcmitype/StillImage" />
      </cc:Work>
    </rdf:RDF>
  </metadata>
  <g
     inkscape:label="Layer 1"
     inkscape:groupmode="layer"
     id="layer1">
    <path
       id="rect13960"
       style="color:#000000;fill:#ffffff;stroke-width:10.1853;stroke-linecap:round;-inkscape-stroke:none"
       transform="scale(0.26458334)"
       d="m 320,177.80469 c -14.10657,0 -25.46289,11.35632 -25.46289,25.46289 v 58.37695 A 47.444863,47.444863 0 0 0 272.55469,301.63867 47.444863,47.444863 0 0 0 320,349.08398 47.444863,47.444863 0 0 0 357.56445,330.58203 H 472.7793 c 14.10655,0 25.46289,-11.35632 25.46289,-25.46289 0,-14.10657 -11.35634,-25.46289 -25.46289,-25.46289 H 362.04297 a 47.444863,47.444863 0 0 0 -16.58008,-18.05078 v -58.33789 c 0,-14.10657 -11.35632,-25.46289 -25.46289,-25.46289 z M 294.53711,0 c -14.10657,0 -25.46289,11.356322 -25.46289,25.462891 0,14.106567 11.35632,25.46289 25.46289,25.46289 V 74.730469 C 226.60825,79.403356 165.14993,102.61468 118.36133,138.83789 65.788486,179.53919 31.417999,237.87245 31.417969,303.01172 a 25.465602,25.465602 0 0 0 0,0.0156 c 0.05058,68.74233 39.052352,132.59481 102.578121,175.08985 4.81838,4.46354 6.65339,8.45435 7.21875,15.0664 0.57907,6.77239 -1.05661,16.41409 -5.875,27.49805 -9.63678,22.16791 -31.70436,48.94682 -59.646481,69.52344 a 25.465602,25.465602 0 0 0 6.009766,44.29101 c 0,0 23.048125,8.12486 55.490235,4.63477 32.10843,-3.45423 75.92047,-17.39367 125.84766,-55.3125 19.24444,-10.91144 30.38592,-26.60902 39.90429,-37.22656 9.70945,-10.83069 15.17799,-14.21174 18.03321,-14.41797 77.6022,-0.20184 148.30901,-24.45677 200.6621,-64.98828 52.57233,-40.70128 86.94528,-99.03502 86.94532,-164.17383 -4e-5,-65.13884 -34.37299,-123.4706 -86.94532,-164.17188 -13.1324,-10.16722 -27.41852,-19.31175 -42.67968,-27.30859 l 17.33203,-30.021484 c 7.05328,-12.21665 2.89632,-27.729925 -9.32031,-34.783204 -12.21664,-7.053278 -27.72992,-2.896337 -34.78321,9.320313 L 431.70117,91.533203 C 404.72513,82.571696 375.73736,76.810489 345.46289,74.728516 V 50.925781 c 14.10657,0 25.46289,-11.356323 25.46289,-25.46289 C 370.92578,11.356322 359.56946,0 345.46289,0 Z m 25.46094,124.76758 v 0.002 c 67.33112,1.8e-4 127.81119,21.31257 170.46875,54.33789 42.65756,33.02532 67.1914,76.54036 67.1914,123.9043 0,47.36392 -24.53384,90.87897 -67.1914,123.9043 -42.65756,33.02532 -103.13763,54.33965 -170.46875,54.33984 a 25.465602,25.465602 0 0 0 -1.10157,0.0215 c -25.94317,1.12449 -42.26142,18.37848 -53.86523,31.32227 -11.60381,12.94379 -21.12991,23.77192 -27.93945,27.4082 a 25.465602,25.465602 0 0 0 -3.50782,2.25977 c -30.97522,23.77542 -57.06721,35.38092 -78.02539,41.25586 10.84627,-13.5944 20.08425,-27.81405 26.48633,-42.54102 7.28334,-16.75419 11.43932,-34.29266 9.91406,-52.13086 -1.52524,-17.83823 -9.71757,-35.86522 -24.08789,-48.8457 a 25.465602,25.465602 0 0 0 -3.18945,-2.45117 C 111.02494,402.67471 82.39119,353.46396 82.345703,303.01172 v -0.0156 c 0,-0.002 4e-6,-0.003 0,-0.006 0.0076,-47.35562 24.538117,-90.86262 67.189457,-123.88281 42.65803,-33.02537 103.13131,-54.34015 170.46289,-54.33984 z" />
  </g>
</svg>
